{
       "user": {
            "id": 1,
            "name": "Мкртчян Мурад Ефремович",
            "position": "Менеджер отдела заселения",
            "image": "https://picsum.photos/id/50/100/100",
            "company": "ООО Строй монтаж"
        }
}

